singlecycle.vcd
$date
	Tue Jun 18 06:37:58 2024
$end
$version
	Icarus Verilog
$end
$timescale
	1ps
$end
$scope module SingleCycleProcTest_v $end
$var wire 64 ! dMemOut [63:0] $end
$var wire 64 " currentPC [63:0] $end
$var reg 1 # CLK $end
$var reg 1 $ Reset_L $end
$var reg 8 % passed [7:0] $end
$var reg 64 & startPC [63:0] $end
$var reg 16 ' watchdog [15:0] $end
$scope module uut $end
$var wire 1 # CLK $end
$var wire 1 $ resetl $end
$var wire 64 ( startpc [63:0] $end
$var wire 1 ) zero $end
$var wire 64 * writedata [63:0] $end
$var wire 1 + uncond_branch $end
$var wire 3 , signop [2:0] $end
$var wire 5 - rn [4:0] $end
$var wire 5 . rm [4:0] $end
$var wire 1 / regwrite $end
$var wire 64 0 regoutB [63:0] $end
$var wire 64 1 regoutA [63:0] $end
$var wire 1 2 reg2loc $end
$var wire 5 3 rd [4:0] $end
$var wire 11 4 opcode [10:0] $end
$var wire 64 5 nextpc [63:0] $end
$var wire 1 6 memwrite $end
$var wire 1 7 memread $end
$var wire 1 8 mem2reg $end
$var wire 32 9 instruction [31:0] $end
$var wire 64 : extimm [63:0] $end
$var wire 64 ; dmemout [63:0] $end
$var wire 1 < branch $end
$var wire 1 = alusrc $end
$var wire 64 > aluout [63:0] $end
$var wire 64 ? aluin2 [63:0] $end
$var wire 4 @ aluctrl [3:0] $end
$var reg 64 A currentpc [63:0] $end
$scope module alu $end
$var wire 64 B BusB [63:0] $end
$var wire 1 ) Zero $end
$var wire 64 C BusA [63:0] $end
$var wire 4 D ALUCtrl [3:0] $end
$var reg 64 E BusW [63:0] $end
$upscope $end
$scope module control $end
$var wire 11 F opcode [10:0] $end
$var reg 4 G aluop [3:0] $end
$var reg 1 = alusrc $end
$var reg 1 < branch $end
$var reg 1 8 mem2reg $end
$var reg 1 7 memread $end
$var reg 1 6 memwrite $end
$var reg 1 2 reg2loc $end
$var reg 1 / regwrite $end
$var reg 3 H signop [2:0] $end
$var reg 1 + uncond_branch $end
$upscope $end
$scope module datamem $end
$var wire 64 I Address [63:0] $end
$var wire 1 # Clock $end
$var wire 1 7 MemoryRead $end
$var wire 1 6 MemoryWrite $end
$var wire 64 J WriteData [63:0] $end
$var reg 64 K ReadData [63:0] $end
$scope task initset $end
$var reg 64 L addr [63:0] $end
$var reg 64 M data [63:0] $end
$upscope $end
$upscope $end
$scope module imem $end
$var wire 64 N Address [63:0] $end
$var reg 32 O Data [31:0] $end
$upscope $end
$scope module nextpclog $end
$var wire 1 ) ALUZero $end
$var wire 1 < Branch $end
$var wire 64 P CurrentPC [63:0] $end
$var wire 1 + Uncondbranch $end
$var wire 64 Q SignExtImm64 [63:0] $end
$var reg 64 R NextPC [63:0] $end
$upscope $end
$scope module regfile $end
$var wire 64 S BusW [63:0] $end
$var wire 1 # Clk $end
$var wire 5 T RA [4:0] $end
$var wire 5 U RB [4:0] $end
$var wire 5 V RW [4:0] $end
$var wire 1 / RegWr $end
$var wire 64 W BusB [63:0] $end
$var wire 64 X BusA [63:0] $end
$upscope $end
$scope module signextend $end
$var wire 3 Y Ctrl [2:0] $end
$var wire 26 Z Imm26 [25:0] $end
$var reg 64 [ BusImm [63:0] $end
$upscope $end
$upscope $end
$scope task allPassed $end
$var reg 8 \ numTests [7:0] $end
$var reg 8 ] passed [7:0] $end
$upscope $end
$scope task passTest $end
$var reg 64 ^ actualOut [63:0] $end
$var reg 64 _ expectedOut [63:0] $end
$var reg 8 ` passed [7:0] $end
$var reg 257 a testType [256:0] $end
$upscope $end
$upscope $end
$enddefinitions $end
#0
$dumpvars
bx a
bx `
bx _
bx ^
bx ]
bx \
bx [
bx Z
bx Y
bx X
bx W
bx V
bx U
bx T
bx S
bx R
bx Q
bx P
bx O
bx N
b0 M
b100000 L
bx K
bx J
bx I
bx H
bx G
bx F
bx E
bx D
bx C
bx B
bx A
bx @
bx ?
bx >
x=
x<
bx ;
bx :
bx 9
x8
x7
x6
bx 5
bx 4
bx 3
x2
bx 1
bx 0
x/
bx .
bx -
bx ,
x+
bx *
x)
b0 (
b0 '
b0 &
b0 %
1$
0#
bx "
bx !
$end
#60000
1#
#120000
b1 '
0#
#121000
0$
#180000
1#
#240000
b100 5
b100 R
b0 "
b0 A
b0 N
b0 P
b10 '
0#
#241000
1$
#244000
b0 ?
b0 B
b0 :
b0 Q
b0 [
0+
0<
17
18
06
1=
1/
b10 @
b10 D
b10 G
b1 ,
b1 H
b1 Y
b0x00x -
b0x00x U
b10000000000001111101001 Z
b11111000010 4
b11111000010 F
b11111 .
b11111 T
b1001 3
b1001 V
b11111000010000000000001111101001 9
b11111000010000000000001111101001 O
#246000
1)
b0 >
b0 E
b0 I
b0 1
b0 C
b0 X
#300000
1#
#320000
b1 *
b1 S
b1 !
b1 ;
b1 K
#360000
b1000 5
b1000 R
b100 "
b100 A
b100 N
b100 P
b11 '
0#
#364000
0)
b1000 >
b1000 E
b1000 I
b1000 ?
b1000 B
b1000 :
b1000 Q
b1000 [
b0x0x0 -
b0x0x0 U
b10000001000001111101010 Z
b1010 3
b1010 V
b11111000010000001000001111101010 9
b11111000010000001000001111101010 O
#420000
1#
#440000
b1010 *
b1010 S
b1010 !
b1010 ;
b1010 K
#480000
b1100 5
b1100 R
b1000 "
b1000 A
b1000 N
b1000 P
b100 '
0#
#484000
b10000 >
b10000 E
b10000 I
b10000 ?
b10000 B
b10000 :
b10000 Q
b10000 [
b0x0x1 -
b0x0x1 U
b10000010000001111101011 Z
b1011 3
b1011 V
b11111000010000010000001111101011 9
b11111000010000010000001111101011 O
#540000
1#
#560000
b101 *
b101 S
b101 !
b101 ;
b101 K
#600000
b10000 5
b10000 R
b1100 "
b1100 A
b1100 N
b1100 P
b101 '
0#
#604000
b11000 >
b11000 E
b11000 I
b11000 ?
b11000 B
b11000 :
b11000 Q
b11000 [
b0xx0x -
b0xx0x U
b10000011000001111101100 Z
b1100 3
b1100 V
b11111000010000011000001111101100 9
b11111000010000011000001111101100 O
#660000
1#
#680000
b111111111011111010100111110111101010110110111110111011111111 *
b111111111011111010100111110111101010110110111110111011111111 S
b111111111011111010100111110111101010110110111110111011111111 !
b111111111011111010100111110111101010110110111110111011111111 ;
b111111111011111010100111110111101010110110111110111011111111 K
#720000
b10100 5
b10100 R
b10000 "
b10000 A
b10000 N
b10000 P
b110 '
0#
#724000
b100000 >
b100000 E
b100000 I
b100000 ?
b100000 B
b100000 :
b100000 Q
b100000 [
b0xxxx -
b0xxxx U
b10000100000001111101101 Z
b1101 3
b1101 V
b11111000010000100000001111101101 9
b11111000010000100000001111101101 O
#780000
1#
#800000
b0 *
b0 S
b0 !
b0 ;
b0 K
#840000
b11000 5
b11000 R
b10100 "
b10100 A
b10100 N
b10100 P
b111 '
0#
#844000
x)
bx >
bx E
bx I
bx *
bx S
bx ?
bx B
b0 :
b0 Q
b0 [
02
07
08
0=
b1 @
b1 D
b1 G
bx ,
bx H
bx Y
b1011 -
b1011 U
b10000010110000000101001010 Z
b10101010000 4
b10101010000 F
b1010 .
b1010 T
b1010 3
b1010 V
b10101010000010110000000101001010 9
b10101010000010110000000101001010 O
#846000
0)
b1111 *
b1111 S
b101 ?
b101 B
b1111 >
b1111 E
b1111 I
b101 0
b101 J
b101 W
b1010 1
b1010 C
b1010 X
#900000
1#
#960000
b11100 5
b11100 R
b11000 "
b11000 A
b11000 N
b11000 P
b1000 '
0#
#962000
b1111 1
b1111 C
b1111 X
#964000
b101 *
b101 S
b101 >
b101 E
b101 I
b0 @
b0 D
b0 G
b1010 -
b1010 U
b10000010100000000110001100 Z
b10001010000 4
b10001010000 F
b1100 .
b1100 T
b1100 3
b1100 V
b10001010000010100000000110001100 9
b10001010000010100000000110001100 O
#966000
b1111 *
b1111 S
b1111 >
b1111 E
b1111 I
b1111 ?
b1111 B
b1111 0
b1111 J
b1111 W
b111111111011111010100111110111101010110110111110111011111111 1
b111111111011111010100111110111101010110110111110111011111111 C
b111111111011111010100111110111101010110110111110111011111111 X
#1020000
1#
#1080000
b100000 5
b100000 R
b11100 "
b11100 A
b11100 N
b11100 P
b1001 '
0#
#1082000
b1111 1
b1111 C
b1111 X
#1084000
b100 :
b100 Q
b100 [
b0xxxx *
b0xxxx S
12
1<
x8
0/
b111 @
b111 D
b111 G
b11 ,
b11 H
b11 Y
b1100 -
b1100 U
b10001100 Z
b10110100000 4
b10110100000 F
b100 .
b100 T
b10110100000000000000000010001100 9
b10110100000000000000000010001100 O
#1086000
bx 1
bx C
bx X
#1140000
1#
#1200000
b100100 5
b100100 R
b100000 "
b100000 A
b100000 N
b100000 P
b1010 '
0#
#1204000
x)
bx *
bx S
bx >
bx E
bx I
b0 :
b0 Q
b0 [
02
0<
08
1/
b10 @
b10 D
b10 G
bx ,
bx H
bx Y
b1001 -
b1001 U
b11000010010000000110101101 Z
b10001011000 4
b10001011000 F
b1101 .
b1101 T
b1101 3
b1101 V
b10001011000010010000000110101101 9
b10001011000010010000000110101101 O
#1206000
0)
b1 *
b1 S
b1 ?
b1 B
b1 >
b1 E
b1 I
b1 0
b1 J
b1 W
b0 1
b0 C
b0 X
#1260000
1#
#1320000
b101000 5
b101000 R
b100100 "
b100100 A
b100100 N
b100100 P
b1011 '
0#
#1322000
b10 *
b10 S
b10 >
b10 E
b10 I
b1 1
b1 C
b1 X
#1324000
1)
b0 *
b0 S
b0 >
b0 E
b0 I
b110 @
b110 D
b110 G
b11000010010000000110001100 Z
b11001011000 4
b11001011000 F
b1100 .
b1100 T
b1100 3
b1100 V
b11001011000010010000000110001100 9
b11001011000010010000000110001100 O
#1326000
0)
b1110 *
b1110 S
b1110 >
b1110 E
b1110 I
b1111 1
b1111 C
b1111 X
#1380000
1#
#1440000
b101100 5
b101100 R
b101000 "
b101000 A
b101000 N
b101000 P
b1100 '
0#
#1442000
b1101 *
b1101 S
b1101 >
b1101 E
b1101 I
b1110 1
b1110 C
b1110 X
#1444000
b11100 5
b11100 R
b1111111111111111111111111111111111111111111111111111111111111101 :
b1111111111111111111111111111111111111111111111111111111111111101 Q
b1111111111111111111111111111111111111111111111111111111111111101 [
1)
b0 *
b0 S
bx01 ?
bx01 B
b0 >
b0 E
b0 I
x2
1+
x<
x8
x=
0/
bx @
bx D
bx G
b10 ,
b10 H
b10 Y
b111x1 -
b111x1 U
b11111111111111111111111101 Z
b10111111 4
b10111111 F
b11111 .
b11111 T
b11101 3
b11101 V
b10111111111111111111111111101 9
b10111111111111111111111111101 O
#1446000
bx ?
bx B
bx 0
bx J
bx W
b0 1
b0 C
b0 X
#1500000
1#
#1560000
b10000 5
b10000 R
b11100 "
b11100 A
b11100 N
b11100 P
b1101 '
0#
#1564000
b100000 5
b100000 R
x)
bx *
bx S
bx >
bx E
bx I
b100 :
b100 Q
b100 [
12
0+
1<
0=
b111 @
b111 D
b111 G
b11 ,
b11 H
b11 Y
b1100 -
b1100 U
b10001100 Z
b10110100000 4
b10110100000 F
b100 .
b100 T
b1100 3
b1100 V
b10110100000000000000000010001100 9
b10110100000000000000000010001100 O
#1566000
0)
b0xxx0 *
b0xxx0 S
b1110 >
b1110 E
b1110 I
b1110 ?
b1110 B
b1110 0
b1110 J
b1110 W
bx 1
bx C
bx X
#1620000
1#
#1680000
b100100 5
b100100 R
b100000 "
b100000 A
b100000 N
b100000 P
b1110 '
0#
#1684000
x)
bx *
bx S
bx >
bx E
bx I
b0 :
b0 Q
b0 [
02
0<
08
1/
b10 @
b10 D
b10 G
bx ,
bx H
bx Y
b1001 -
b1001 U
b11000010010000000110101101 Z
b10001011000 4
b10001011000 F
b1101 .
b1101 T
b1101 3
b1101 V
b10001011000010010000000110101101 9
b10001011000010010000000110101101 O
#1686000
0)
b10 *
b10 S
b1 ?
b1 B
b10 >
b10 E
b10 I
b1 0
b1 J
b1 W
b1 1
b1 C
b1 X
#1740000
1#
#1800000
b101000 5
b101000 R
b100100 "
b100100 A
b100100 N
b100100 P
b1111 '
0#
#1802000
b11 *
b11 S
b11 >
b11 E
b11 I
b10 1
b10 C
b10 X
#1804000
b1 *
b1 S
b1 >
b1 E
b1 I
b110 @
b110 D
b110 G
b11000010010000000110001100 Z
b11001011000 4
b11001011000 F
b1100 .
b1100 T
b1100 3
b1100 V
b11001011000010010000000110001100 9
b11001011000010010000000110001100 O
#1806000
b1101 *
b1101 S
b1101 >
b1101 E
b1101 I
b1110 1
b1110 C
b1110 X
#1860000
1#
#1920000
b101100 5
b101100 R
b101000 "
b101000 A
b101000 N
b101000 P
b10000 '
0#
#1922000
b1100 *
b1100 S
b1100 >
b1100 E
b1100 I
b1101 1
b1101 C
b1101 X
#1924000
b11100 5
b11100 R
b1111111111111111111111111111111111111111111111111111111111111101 :
b1111111111111111111111111111111111111111111111111111111111111101 Q
b1111111111111111111111111111111111111111111111111111111111111101 [
1)
b0 *
b0 S
bx01 ?
bx01 B
b0 >
b0 E
b0 I
x2
1+
x<
x8
x=
0/
bx @
bx D
bx G
b10 ,
b10 H
b10 Y
b111x1 -
b111x1 U
b11111111111111111111111101 Z
b10111111 4
b10111111 F
b11111 .
b11111 T
b11101 3
b11101 V
b10111111111111111111111111101 9
b10111111111111111111111111101 O
#1926000
bx ?
bx B
bx 0
bx J
bx W
b0 1
b0 C
b0 X
#1980000
1#
#2040000
b10000 5
b10000 R
b11100 "
b11100 A
b11100 N
b11100 P
b10001 '
0#
#2044000
b100000 5
b100000 R
x)
bx *
bx S
bx >
bx E
bx I
b100 :
b100 Q
b100 [
12
0+
1<
0=
b111 @
b111 D
b111 G
b11 ,
b11 H
b11 Y
b1100 -
b1100 U
b10001100 Z
b10110100000 4
b10110100000 F
b100 .
b100 T
b1100 3
b1100 V
b10110100000000000000000010001100 9
b10110100000000000000000010001100 O
#2046000
0)
b0xx0x *
b0xx0x S
b1101 >
b1101 E
b1101 I
b1101 ?
b1101 B
b1101 0
b1101 J
b1101 W
bx 1
bx C
bx X
#2100000
1#
#2160000
b100100 5
b100100 R
b100000 "
b100000 A
b100000 N
b100000 P
b10010 '
0#
#2164000
x)
bx *
bx S
bx >
bx E
bx I
b0 :
b0 Q
b0 [
02
0<
08
1/
b10 @
b10 D
b10 G
bx ,
bx H
bx Y
b1001 -
b1001 U
b11000010010000000110101101 Z
b10001011000 4
b10001011000 F
b1101 .
b1101 T
b1101 3
b1101 V
b10001011000010010000000110101101 9
b10001011000010010000000110101101 O
#2166000
0)
b11 *
b11 S
b1 ?
b1 B
b11 >
b11 E
b11 I
b1 0
b1 J
b1 W
b10 1
b10 C
b10 X
#2220000
1#
#2280000
b101000 5
b101000 R
b100100 "
b100100 A
b100100 N
b100100 P
b10011 '
0#
#2282000
b100 *
b100 S
b100 >
b100 E
b100 I
b11 1
b11 C
b11 X
#2284000
b10 *
b10 S
b10 >
b10 E
b10 I
b110 @
b110 D
b110 G
b11000010010000000110001100 Z
b11001011000 4
b11001011000 F
b1100 .
b1100 T
b1100 3
b1100 V
b11001011000010010000000110001100 9
b11001011000010010000000110001100 O
#2286000
b1100 *
b1100 S
b1100 >
b1100 E
b1100 I
b1101 1
b1101 C
b1101 X
#2340000
1#
#2400000
b101100 5
b101100 R
b101000 "
b101000 A
b101000 N
b101000 P
b10100 '
0#
#2402000
b1011 *
b1011 S
b1011 >
b1011 E
b1011 I
b1100 1
b1100 C
b1100 X
#2404000
b11100 5
b11100 R
b1111111111111111111111111111111111111111111111111111111111111101 :
b1111111111111111111111111111111111111111111111111111111111111101 Q
b1111111111111111111111111111111111111111111111111111111111111101 [
1)
b0 *
b0 S
bx01 ?
bx01 B
b0 >
b0 E
b0 I
x2
1+
x<
x8
x=
0/
bx @
bx D
bx G
b10 ,
b10 H
b10 Y
b111x1 -
b111x1 U
b11111111111111111111111101 Z
b10111111 4
b10111111 F
b11111 .
b11111 T
b11101 3
b11101 V
b10111111111111111111111111101 9
b10111111111111111111111111101 O
#2406000
bx ?
bx B
bx 0
bx J
bx W
b0 1
b0 C
b0 X
#2460000
1#
#2520000
b10000 5
b10000 R
b11100 "
b11100 A
b11100 N
b11100 P
b10101 '
0#
#2524000
b100000 5
b100000 R
x)
bx *
bx S
bx >
bx E
bx I
b100 :
b100 Q
b100 [
12
0+
1<
0=
b111 @
b111 D
b111 G
b11 ,
b11 H
b11 Y
b1100 -
b1100 U
b10001100 Z
b10110100000 4
b10110100000 F
b100 .
b100 T
b1100 3
b1100 V
b10110100000000000000000010001100 9
b10110100000000000000000010001100 O
#2526000
0)
b0xx00 *
b0xx00 S
b1100 >
b1100 E
b1100 I
b1100 ?
b1100 B
b1100 0
b1100 J
b1100 W
bx 1
bx C
bx X
#2580000
1#
#2640000
b100100 5
b100100 R
b100000 "
b100000 A
b100000 N
b100000 P
b10110 '
0#
#2644000
x)
bx *
bx S
bx >
bx E
bx I
b0 :
b0 Q
b0 [
02
0<
08
1/
b10 @
b10 D
b10 G
bx ,
bx H
bx Y
b1001 -
b1001 U
b11000010010000000110101101 Z
b10001011000 4
b10001011000 F
b1101 .
b1101 T
b1101 3
b1101 V
b10001011000010010000000110101101 9
b10001011000010010000000110101101 O
#2646000
0)
b100 *
b100 S
b1 ?
b1 B
b100 >
b100 E
b100 I
b1 0
b1 J
b1 W
b11 1
b11 C
b11 X
#2700000
1#
#2760000
b101000 5
b101000 R
b100100 "
b100100 A
b100100 N
b100100 P
b10111 '
0#
#2762000
b101 *
b101 S
b101 >
b101 E
b101 I
b100 1
b100 C
b100 X
#2764000
b11 *
b11 S
b11 >
b11 E
b11 I
b110 @
b110 D
b110 G
b11000010010000000110001100 Z
b11001011000 4
b11001011000 F
b1100 .
b1100 T
b1100 3
b1100 V
b11001011000010010000000110001100 9
b11001011000010010000000110001100 O
#2766000
b1011 *
b1011 S
b1011 >
b1011 E
b1011 I
b1100 1
b1100 C
b1100 X
#2820000
1#
#2880000
b101100 5
b101100 R
b101000 "
b101000 A
b101000 N
b101000 P
b11000 '
0#
#2882000
b1010 *
b1010 S
b1010 >
b1010 E
b1010 I
b1011 1
b1011 C
b1011 X
#2884000
b11100 5
b11100 R
b1111111111111111111111111111111111111111111111111111111111111101 :
b1111111111111111111111111111111111111111111111111111111111111101 Q
b1111111111111111111111111111111111111111111111111111111111111101 [
1)
b0 *
b0 S
bx01 ?
bx01 B
b0 >
b0 E
b0 I
x2
1+
x<
x8
x=
0/
bx @
bx D
bx G
b10 ,
b10 H
b10 Y
b111x1 -
b111x1 U
b11111111111111111111111101 Z
b10111111 4
b10111111 F
b11111 .
b11111 T
b11101 3
b11101 V
b10111111111111111111111111101 9
b10111111111111111111111111101 O
#2886000
bx ?
bx B
bx 0
bx J
bx W
b0 1
b0 C
b0 X
#2940000
1#
#3000000
b10000 5
b10000 R
b11100 "
b11100 A
b11100 N
b11100 P
b11001 '
0#
#3004000
b100000 5
b100000 R
x)
bx *
bx S
bx >
bx E
bx I
b100 :
b100 Q
b100 [
12
0+
1<
0=
b111 @
b111 D
b111 G
b11 ,
b11 H
b11 Y
b1100 -
b1100 U
b10001100 Z
b10110100000 4
b10110100000 F
b100 .
b100 T
b1100 3
b1100 V
b10110100000000000000000010001100 9
b10110100000000000000000010001100 O
#3006000
0)
b0x0xx *
b0x0xx S
b1011 >
b1011 E
b1011 I
b1011 ?
b1011 B
b1011 0
b1011 J
b1011 W
bx 1
bx C
bx X
#3060000
1#
#3120000
b100100 5
b100100 R
b100000 "
b100000 A
b100000 N
b100000 P
b11010 '
0#
#3124000
x)
bx *
bx S
bx >
bx E
bx I
b0 :
b0 Q
b0 [
02
0<
08
1/
b10 @
b10 D
b10 G
bx ,
bx H
bx Y
b1001 -
b1001 U
b11000010010000000110101101 Z
b10001011000 4
b10001011000 F
b1101 .
b1101 T
b1101 3
b1101 V
b10001011000010010000000110101101 9
b10001011000010010000000110101101 O
#3126000
0)
b101 *
b101 S
b1 ?
b1 B
b101 >
b101 E
b101 I
b1 0
b1 J
b1 W
b100 1
b100 C
b100 X
#3180000
1#
#3240000
b101000 5
b101000 R
b100100 "
b100100 A
b100100 N
b100100 P
b11011 '
0#
#3242000
b110 *
b110 S
b110 >
b110 E
b110 I
b101 1
b101 C
b101 X
#3244000
b100 *
b100 S
b100 >
b100 E
b100 I
b110 @
b110 D
b110 G
b11000010010000000110001100 Z
b11001011000 4
b11001011000 F
b1100 .
b1100 T
b1100 3
b1100 V
b11001011000010010000000110001100 9
b11001011000010010000000110001100 O
#3246000
b1010 *
b1010 S
b1010 >
b1010 E
b1010 I
b1011 1
b1011 C
b1011 X
#3300000
1#
#3360000
b101100 5
b101100 R
b101000 "
b101000 A
b101000 N
b101000 P
b11100 '
0#
#3362000
b1001 *
b1001 S
b1001 >
b1001 E
b1001 I
b1010 1
b1010 C
b1010 X
#3364000
b11100 5
b11100 R
b1111111111111111111111111111111111111111111111111111111111111101 :
b1111111111111111111111111111111111111111111111111111111111111101 Q
b1111111111111111111111111111111111111111111111111111111111111101 [
1)
b0 *
b0 S
bx01 ?
bx01 B
b0 >
b0 E
b0 I
x2
1+
x<
x8
x=
0/
bx @
bx D
bx G
b10 ,
b10 H
b10 Y
b111x1 -
b111x1 U
b11111111111111111111111101 Z
b10111111 4
b10111111 F
b11111 .
b11111 T
b11101 3
b11101 V
b10111111111111111111111111101 9
b10111111111111111111111111101 O
#3366000
bx ?
bx B
bx 0
bx J
bx W
b0 1
b0 C
b0 X
#3420000
1#
#3480000
b10000 5
b10000 R
b11100 "
b11100 A
b11100 N
b11100 P
b11101 '
0#
#3484000
b100000 5
b100000 R
x)
bx *
bx S
bx >
bx E
bx I
b100 :
b100 Q
b100 [
12
0+
1<
0=
b111 @
b111 D
b111 G
b11 ,
b11 H
b11 Y
b1100 -
b1100 U
b10001100 Z
b10110100000 4
b10110100000 F
b100 .
b100 T
b1100 3
b1100 V
b10110100000000000000000010001100 9
b10110100000000000000000010001100 O
#3486000
0)
b0x0x0 *
b0x0x0 S
b1010 >
b1010 E
b1010 I
b1010 ?
b1010 B
b1010 0
b1010 J
b1010 W
bx 1
bx C
bx X
#3540000
1#
#3600000
b100100 5
b100100 R
b100000 "
b100000 A
b100000 N
b100000 P
b11110 '
0#
#3604000
x)
bx *
bx S
bx >
bx E
bx I
b0 :
b0 Q
b0 [
02
0<
08
1/
b10 @
b10 D
b10 G
bx ,
bx H
bx Y
b1001 -
b1001 U
b11000010010000000110101101 Z
b10001011000 4
b10001011000 F
b1101 .
b1101 T
b1101 3
b1101 V
b10001011000010010000000110101101 9
b10001011000010010000000110101101 O
#3606000
0)
b110 *
b110 S
b1 ?
b1 B
b110 >
b110 E
b110 I
b1 0
b1 J
b1 W
b101 1
b101 C
b101 X
#3660000
1#
#3720000
b101000 5
b101000 R
b100100 "
b100100 A
b100100 N
b100100 P
b11111 '
0#
#3722000
b111 *
b111 S
b111 >
b111 E
b111 I
b110 1
b110 C
b110 X
#3724000
b101 *
b101 S
b101 >
b101 E
b101 I
b110 @
b110 D
b110 G
b11000010010000000110001100 Z
b11001011000 4
b11001011000 F
b1100 .
b1100 T
b1100 3
b1100 V
b11001011000010010000000110001100 9
b11001011000010010000000110001100 O
#3726000
b1001 *
b1001 S
b1001 >
b1001 E
b1001 I
b1010 1
b1010 C
b1010 X
#3780000
1#
#3840000
b101100 5
b101100 R
b101000 "
b101000 A
b101000 N
b101000 P
b100000 '
0#
#3842000
b1000 *
b1000 S
b1000 >
b1000 E
b1000 I
b1001 1
b1001 C
b1001 X
#3844000
b11100 5
b11100 R
b1111111111111111111111111111111111111111111111111111111111111101 :
b1111111111111111111111111111111111111111111111111111111111111101 Q
b1111111111111111111111111111111111111111111111111111111111111101 [
1)
b0 *
b0 S
bx01 ?
bx01 B
b0 >
b0 E
b0 I
x2
1+
x<
x8
x=
0/
bx @
bx D
bx G
b10 ,
b10 H
b10 Y
b111x1 -
b111x1 U
b11111111111111111111111101 Z
b10111111 4
b10111111 F
b11111 .
b11111 T
b11101 3
b11101 V
b10111111111111111111111111101 9
b10111111111111111111111111101 O
#3846000
bx ?
bx B
bx 0
bx J
bx W
b0 1
b0 C
b0 X
#3900000
1#
#3960000
b10000 5
b10000 R
b11100 "
b11100 A
b11100 N
b11100 P
b100001 '
0#
#3964000
b100000 5
b100000 R
x)
bx *
bx S
bx >
bx E
bx I
b100 :
b100 Q
b100 [
12
0+
1<
0=
b111 @
b111 D
b111 G
b11 ,
b11 H
b11 Y
b1100 -
b1100 U
b10001100 Z
b10110100000 4
b10110100000 F
b100 .
b100 T
b1100 3
b1100 V
b10110100000000000000000010001100 9
b10110100000000000000000010001100 O
#3966000
0)
b0x00x *
b0x00x S
b1001 >
b1001 E
b1001 I
b1001 ?
b1001 B
b1001 0
b1001 J
b1001 W
bx 1
bx C
bx X
#4020000
1#
#4080000
b100100 5
b100100 R
b100000 "
b100000 A
b100000 N
b100000 P
b100010 '
0#
#4084000
x)
bx *
bx S
bx >
bx E
bx I
b0 :
b0 Q
b0 [
02
0<
08
1/
b10 @
b10 D
b10 G
bx ,
bx H
bx Y
b1001 -
b1001 U
b11000010010000000110101101 Z
b10001011000 4
b10001011000 F
b1101 .
b1101 T
b1101 3
b1101 V
b10001011000010010000000110101101 9
b10001011000010010000000110101101 O
#4086000
0)
b111 *
b111 S
b1 ?
b1 B
b111 >
b111 E
b111 I
b1 0
b1 J
b1 W
b110 1
b110 C
b110 X
#4140000
1#
#4200000
b101000 5
b101000 R
b100100 "
b100100 A
b100100 N
b100100 P
b100011 '
0#
#4202000
b1000 *
b1000 S
b1000 >
b1000 E
b1000 I
b111 1
b111 C
b111 X
#4204000
b110 *
b110 S
b110 >
b110 E
b110 I
b110 @
b110 D
b110 G
b11000010010000000110001100 Z
b11001011000 4
b11001011000 F
b1100 .
b1100 T
b1100 3
b1100 V
b11001011000010010000000110001100 9
b11001011000010010000000110001100 O
#4206000
b1000 *
b1000 S
b1000 >
b1000 E
b1000 I
b1001 1
b1001 C
b1001 X
#4260000
1#
#4320000
b101100 5
b101100 R
b101000 "
b101000 A
b101000 N
b101000 P
b100100 '
0#
#4322000
b111 *
b111 S
b111 >
b111 E
b111 I
b1000 1
b1000 C
b1000 X
#4324000
b11100 5
b11100 R
b1111111111111111111111111111111111111111111111111111111111111101 :
b1111111111111111111111111111111111111111111111111111111111111101 Q
b1111111111111111111111111111111111111111111111111111111111111101 [
1)
b0 *
b0 S
bx01 ?
bx01 B
b0 >
b0 E
b0 I
x2
1+
x<
x8
x=
0/
bx @
bx D
bx G
b10 ,
b10 H
b10 Y
b111x1 -
b111x1 U
b11111111111111111111111101 Z
b10111111 4
b10111111 F
b11111 .
b11111 T
b11101 3
b11101 V
b10111111111111111111111111101 9
b10111111111111111111111111101 O
#4326000
bx ?
bx B
bx 0
bx J
bx W
b0 1
b0 C
b0 X
#4380000
1#
#4440000
b10000 5
b10000 R
b11100 "
b11100 A
b11100 N
b11100 P
b100101 '
0#
#4444000
b100000 5
b100000 R
x)
bx *
bx S
bx >
bx E
bx I
b100 :
b100 Q
b100 [
12
0+
1<
0=
b111 @
b111 D
b111 G
b11 ,
b11 H
b11 Y
b1100 -
b1100 U
b10001100 Z
b10110100000 4
b10110100000 F
b100 .
b100 T
b1100 3
b1100 V
b10110100000000000000000010001100 9
b10110100000000000000000010001100 O
#4446000
0)
b0x000 *
b0x000 S
b1000 >
b1000 E
b1000 I
b1000 ?
b1000 B
b1000 0
b1000 J
b1000 W
bx 1
bx C
bx X
#4500000
1#
#4560000
b100100 5
b100100 R
b100000 "
b100000 A
b100000 N
b100000 P
b100110 '
0#
#4564000
x)
bx *
bx S
bx >
bx E
bx I
b0 :
b0 Q
b0 [
02
0<
08
1/
b10 @
b10 D
b10 G
bx ,
bx H
bx Y
b1001 -
b1001 U
b11000010010000000110101101 Z
b10001011000 4
b10001011000 F
b1101 .
b1101 T
b1101 3
b1101 V
b10001011000010010000000110101101 9
b10001011000010010000000110101101 O
#4566000
0)
b1000 *
b1000 S
b1 ?
b1 B
b1000 >
b1000 E
b1000 I
b1 0
b1 J
b1 W
b111 1
b111 C
b111 X
#4620000
1#
#4680000
b101000 5
b101000 R
b100100 "
b100100 A
b100100 N
b100100 P
b100111 '
0#
#4682000
b1001 *
b1001 S
b1001 >
b1001 E
b1001 I
b1000 1
b1000 C
b1000 X
#4684000
b111 *
b111 S
b111 >
b111 E
b111 I
b110 @
b110 D
b110 G
b11000010010000000110001100 Z
b11001011000 4
b11001011000 F
b1100 .
b1100 T
b1100 3
b1100 V
b11001011000010010000000110001100 9
b11001011000010010000000110001100 O
#4740000
1#
#4800000
b101100 5
b101100 R
b101000 "
b101000 A
b101000 N
b101000 P
b101000 '
0#
#4802000
b110 *
b110 S
b110 >
b110 E
b110 I
b111 1
b111 C
b111 X
#4804000
b11100 5
b11100 R
b1111111111111111111111111111111111111111111111111111111111111101 :
b1111111111111111111111111111111111111111111111111111111111111101 Q
b1111111111111111111111111111111111111111111111111111111111111101 [
1)
b0 *
b0 S
bx01 ?
bx01 B
b0 >
b0 E
b0 I
x2
1+
x<
x8
x=
0/
bx @
bx D
bx G
b10 ,
b10 H
b10 Y
b111x1 -
b111x1 U
b11111111111111111111111101 Z
b10111111 4
b10111111 F
b11111 .
b11111 T
b11101 3
b11101 V
b10111111111111111111111111101 9
b10111111111111111111111111101 O
#4806000
bx ?
bx B
bx 0
bx J
bx W
b0 1
b0 C
b0 X
#4860000
1#
#4920000
b10000 5
b10000 R
b11100 "
b11100 A
b11100 N
b11100 P
b101001 '
0#
